%YAML 1.1
%TAG !u! tag:unity3d.com,2011:
--- !u!162 &1
EditorUserSettings:
  m_ObjectHideFlags: 0
  serializedVersion: 4
  m_ConfigSettings:
    RecentlyUsedScenePath-0:
      value: 2242470311464669081d033702205a0359231d29242629172c24147cb0e4740dcba734fcf32e30327627f7311432040cf10f070eb93f0f081900f22910f219415fd016cc0ed1
      flags: 0
    RecentlyUsedScenePath-1:
      value: 2242470311464669081d033702205a0359231d29242629172c24147cb0e4740dcba734fcf32e30327627f7311432040cf10f070eb93f0f081900f22910f219425fd016cc0ed1
      flags: 0
    RecentlyUsedScenePath-2:
      value: 2242470311464669081d033702205a0359310a3f253c00312e2c2225b3af3536ebea37fde23e001a2b17e628223f023abc1f0702e212
      flags: 0
    RecentlyUsedScenePath-3:
      value: 2242470311464669081d033702205a0359310a3f253c66113e3a1827f1af3536ebea37fde23e001a2b17e628223f023abc1f0702e212
      flags: 0
    RecentlyUsedScenePath-4:
      value: 22424703114646680e0b0227036c711501572b292926237e38271427fb
      flags: 0
    RecentlyUsedScenePath-5:
      value: 22424703114646680e0b0227036c6f1f01120a1f3c6815332827187df7ee3d2cfb
      flags: 0
    RecentlyUsedScenePath-6:
      value: 22424703114646680e0b0227036c6f1103041d6a012d2825633c133af6f9
      flags: 0
    RecentlyUsedScenePath-7:
      value: 22424703114646680e0b0227036c6f02131119283f1c23233967083debf42d
      flags: 0
    RecentlyUsedScenePath-8:
      value: 22424703114646680e0b0227036c78111b1258192f2d2835633c133af6f9
      flags: 0
    RecentlyUsedScenePath-9:
      value: 22424703114646680e0b0227036c72111f1958192f2d2835633c133af6f9
      flags: 0
    UnityRemoteDevice:
      value: 225f4d46245b0d4902070862342649191512
      flags: 0
    vcSharedLogLevel:
      value: 0d5e400f0650
      flags: 0
  m_VCAutomaticAdd: 1
  m_VCDebugCom: 0
  m_VCDebugCmd: 0
  m_VCDebugOut: 0
  m_SemanticMergeMode: 2
  m_VCShowFailedCheckout: 1
  m_VCOverwriteFailedCheckoutAssets: 1
  m_VCProjectOverlayIcons: 1
  m_VCHierarchyOverlayIcons: 1
  m_VCOtherOverlayIcons: 1
  m_VCAllowAsyncUpdate: 1
